id,text,username,processed_text,positive,negative,neutral,compound,sentiment,O,C,E,A,N
1122580319109091328,For thirty-six years Richard Lugar proved that pragmatism and decency work—not only in Washington but all over the world. Michelle and I send our warmest sympathies to his family and all those who had the privilege of knowing this American statesman.pic.twitter.com/Oy5DzPwkGb,BarackObama,thirty six year richard lugar prove pragmatism decency worknot washington world michelle send warm sympathy family privilege know american statesman dzpwkgb,0.277,0.0,0.723,0.7096,positive,0.998,0.218,0.06,0.997,0.0
1120795062668075009,Dominique's story is a reminder to us that where you're from shouldn't define what you can achieve. I'm proud of her and all students striving for a better future.https://twitter.com/ObamaFoundation/status/1120784551192727552 …,BarackObama,dominique story reminder us not define achieve proud student strive good future,0.188,0.165,0.647,0.089,positive,0.998,0.008,0.329,0.998,0.0
1120412132036706305,This generation of climate activists is tired of inaction and they've caught the attention of leaders all over the world. So while this challenge is only getting more urgent they show us the kind of action it'll take to meet this moment.,BarackObama,generation climate activist tired inaction catch attention leader world challenge get urgent show us kind action take meet moment,0.256,0.193,0.551,0.1531,positive,0.795,0.263,0.373,0.97,0.001
1120411993905799171,And in the U.S. 13-year old @AlexandriaV2005 of New York 13-year old @havenruthie of Denver and 16-year old @israhirsi of Minneapolis are some of the young people leading the fight at home. I hope more of us will follow their example.https://www.nationalgeographic.com/environment/2019/03/youth-climate-strike-kids-save-the-world/ …,BarackObama,year old new york year old denver year old minneapoli young people lead fight home hope us follow example,0.129,0.116,0.756,0.0772,positive,0.996,0.014,0.598,0.985,0.0
1120411854420041729,I met 23-year-old @luisamneubauer in Berlin earlier this month. Luisa the organizer behind the student movement in Germany says “It's our future and we're not going to stop fighting for it.”https://www.latimes.com/world/la-fg-germany-worldwide-climate-change-20190328-story.html …,BarackObama,meet year old berlin earlier month luisa organizer behind student movement germany say future not go stop fight,0.203,0.0,0.797,0.4717,positive,0.131,0.219,0.637,0.956,0.008
1120411734316023809,They're people like 16-year-old @GretaThunberg whose protests at Swedish parliament sparked a movement. Inspired by Greta's action Fridays for Future brought together more than a million strikers on every continent last month to demand action on climate.https://www.ted.com/talks/greta_thunberg_the_disarming_case_to_act_right_now_on_climate …,BarackObama,people like year old whose protest swedish parliament spark movement inspire greta action friday future bring together million striker every continent last month demand action climate,0.248,0.107,0.644,0.6808,positive,0.066,0.391,0.112,0.395,0.003
1120411621304750088,Young people all over the world are leading the way in the fight to protect our planet because they know their future depends on it. This Earth Day I want to celebrate the courageous committed young leaders who are stepping up to save the one planet we've got.,BarackObama,young people world lead way fight protect planet know future depend earth day want celebrate courageous committed young leader step save one planet get,0.454,0.072,0.474,0.9136,positive,0.95,0.112,0.334,0.578,0.001
1119993208149282818,To all who celebrate today happy Easter from our family to yours! On this day of rebirth and renewal let's recommit to love and serve our brothers and sisters especially those in need in every way we can. Have a great day everybody.pic.twitter.com/BtMyWebGLw,BarackObama,celebrate today happy easter family day rebirth renewal let us recommit love serve brother sister especially need every way great day everybody,0.466,0.0,0.534,0.9493,positive,0.999,0.266,0.84,0.954,0.0
1119964696810070017,The attacks on tourists and Easter worshippers in Sri Lanka are an attack on humanity. On a day devoted to love redemption and renewal we pray for the victims and stand with the people of Sri Lanka.,BarackObama,attack tourist easter worshipper sri lanka attack humanity day devote love redemption renewal pray victim stand people sri lanka,0.341,0.269,0.39,0.296,positive,0.064,0.73,0.895,0.512,0.014
1117886698568830976,Notre Dame is one of the world's great treasures and we're thinking of the people of France in your time of grief. It's in our nature to mourn when we see history lost – but it's also in our nature to rebuild for tomorrow as strong as we can.pic.twitter.com/SpMEvv1BzB,BarackObama,notre dame one world great treasure think people france time grief nature mourn see history lose also nature rebuild tomorrow strong bzb,0.28,0.254,0.466,0.2263,positive,0.999,0.056,0.065,0.979,0.0
1117498965417656321,Congratulations Tiger! To come back and win the Masters after all the highs and lows is a testament to excellence grit and determination.,BarackObama,congratulation tiger come back win master high low testament excellence grit determination,0.614,0.089,0.297,0.9246,positive,0.998,0.008,0.329,0.998,0.0
1116840506506514433,"Another good story worth sharing: From one kid from Akron"" to a new generation of Akron kids some remarkable early achievements at @IPROMISESchool. Great work @KingJames—and even better work by those students. Proud to be a witness to their success:https://nyti.ms/2Gjptkp""",BarackObama,another good story worth sharing one kid akron new generation akron kid remarkable early achievement great work even good work student proud witness success,0.61,0.0,0.39,0.975,positive,0.997,0.16,0.227,1.0,0.001
1116130925396602880,From a big NBA fan congrats to future Hall of Famers Dwyane Wade and Dirk Nowitzki—not just all-time greats but class acts too.,BarackObama,big nba fan congrat future hall famer dwyane wade dirk nowitzkinot time great class act,0.33,0.0,0.67,0.7506,positive,0.988,0.013,0.897,0.979,0.001
1114517185483898880,In just a few minutes I'm taking the stage at the @ObamaFoundation Town Hall Europe for a conversation about how to best support civic leaders carrying out good work across the continent. I hope you'll tune in live at http://obama.org .https://twitter.com/ObamaFoundation/status/1114516881870872577 …,BarackObama,minute take stage town hall europe conversation good support civic leader carry good work across continent hope tune live,0.432,0.0,0.568,0.886,positive,0.347,0.201,0.161,0.986,0.011
1114202323767701504,A voice everybody should hear.https://twitter.com/ncaawbb/status/1113842633481310212 …,BarackObama,voice everybody hear,0.0,0.0,1.0,0.0,neutral,0.856,0.89,0.06,0.916,0.105
1113884881807990789,Here's a story about people doing good that's worth sharing: @BradPaisley and his wife @Kimwilliamspais saw food insecurity in Nashville and decided to do something about it. They just broke ground on a free grocery store to help families in need:https://apnews.com/2f5bdd226a674fd7bd9dca97c172475c …,BarackObama,story people good worth sharing wife see food insecurity nashville decide something break ground free grocery store help family need,0.447,0.092,0.461,0.8689,positive,0.999,0.318,0.144,0.995,0.0
1113518349483421696,Great to see Chicago's historic mayoral race between two highly qualified candidates. Congrats to our next mayor Lori Lightfoot—and Toni Preckwinkle campaigned hard and did us proud. I know that with our city's heart and Lori's leadership Chicago's best days are still ahead.,BarackObama,great see chicago historic mayoral race two highly qualified candidate congrat next mayor lori lightfootand toni preckwinkle campaign hard us proud know city heart lori leadership chicago good day still ahead,0.262,0.036,0.701,0.8658,positive,0.102,0.005,0.005,0.01,0.002
1113065751748009984,Valerie is one of my oldest friends and advisors – she was by my side when I first decided to run for office and for every major moment of the presidency. @ValerieJarrett's voice has often inspired me and I know “Finding My Voice” will inspire others to lift their voices too.pic.twitter.com/nWTBDByMoz,BarackObama,valerie one old friend advisor side first decide run office every major moment presidency voice often inspire know find voice inspire lift voice,0.346,0.0,0.654,0.891,positive,0.825,0.952,0.964,0.933,0.002
